
{
    "lidar_config": [
        {
            "broadcast_code": "1HDDH1200100591",
            "enable_connect": true,
            "enable_fan": true,
            "return_mode": 0,
            "coordinate": 0,
            "imu_rate": 1,
            "extrinsic_parameter_source": 0,
            "enable_high_sensitivity": false
        }
    ],
    "timesync_config": {
        "enable_timesync": false,
        "device_name": "/dev/ttyUSB0",
        "comm_device_type": 0,
        "baudrate_index": 2,
        "parity_index": 0
    }
}